1,117
408,237
613,979
271,412
404,934
1160,471
1055,597
855,226
257,661
189,68
687,751
250,1161
905,503
738,1041
949,472
289,949
144,534
607,687
335,182
1033,745
62,1
301,1033
262,464
387,910
934,1188
586,879
597,379
448,210
329,103
337,881
166,439
645,437
658,660
603,320
829,611
770,819
486,72
1080,975
979,257
1168,628
856,55
305,608
866,757
421,263
32,1044
503,850
528,486
332,739
700,610
673,866
751,27
931,636
281,550
517,166
628,761
763,905
187,408
142,1155
279,244
27,738
850,945
954,855
452,685
426,786
1155,21
969,541
1021,763
910,262
550,31
117,1075
610,13
360,54
636,622
801,35
661,388
671,120
64,177
133,247
1175,645
682,654
272,432
907,111
182,140
388,607
234,862
1127,817
258,816
583,331
380,297
312,279
956,82
1121,953
948,324
782,1109
975,682
845,681
592,234
161,304
593,843
45,346
621,760
611,159
140,1007
881,14
1001,1081
1161,1021
327,1028
290,799
162,1055
124,137
159,107
561,84
29,265
1073,45
482,1174
721,125
858,52
42,621
320,1191
458,200
509,148
1192,933
1060,780
553,301
111,402
819,1064
635,158
914,556
424,629
685,219
1173,895
675,1121
1028,323
539,1114
472,325
95,278
48,476
199,416
768,43
797,964
674,634
350,809
1019,275
177,793
1139,488
268,305
935,727
1104,832
379,887
789,546
470,1094
263,353
325,612
695,894
416,409
464,332
206,411
125,721
92,859
1016,189
14,663
802,454
437,909
587,302
1079,515
761,1005
469,127
443,1100
1197,119
1081,469
882,632
343,609
1054,918
836,130
681,619
1009,1176
945,927
474,1192
529,1080
564,1136
523,958
471,872
816,1068
203,271
654,191
572,652
573,112
1176,32
228,936
619,1187
796,1108
1089,307
84,211
922,797
799,711
454,352
709,428
1044,878
7,1177
875,788
739,395
541,1122
727,1156
590,142
1138,504
929,426
887,498
941,528
394,385
409,807
534,335
237,729
811,174
542,876
116,758
244,133
946,831
565,460
1007,298
757,401
1006,274
1132,1099
995,586
1134,345
1075,1016
130,998
1111,568
759,801
555,1157
269,560
219,689
476,626
318,448
615,1127
170,615
660,1061
823,178
401,258
1086,467
854,595
1066,404
791,482
195,198
758,160
831,954
74,861
54,802
1143,931
254,569
927,941
51,658
551,29
753,340
412,417
1126,587
983,108
119,48
689,557
160,699
859,1015
417,195
566,449
82,194
964,955
973,759
891,1189
690,603
699,421
981,709
997,254
366,701
581,856
657,804
322,290
71,517
515,427
439,453
519,1132
190,406
903,224
261,537
249,694
516,83
923,136
810,313
1147,563
510,633
4,1194
60,407
705,714
357,1124
943,364
804,8
1099,892
304,935
513,187
455,779
340,494
701,703
31,223
309,740
883,553
55,769
1156,696
423,903
307,1053
449,196
69,497
155,564
844,500
958,1149
247,452
252,618
1108,1104
1178,655
1063,114
1094,673
878,922
91,566
410,372
540,1058
711,974
659,675
241,161
1158,95
35,492
618,1180
776,444
248,1009
13,1170
662,479
608,639
1116,1143
198,849
265,1001
104,646
794,1137
953,6
24,1110
25,839
147,138
1146,829
107,420
977,1066
884,59
894,592
839,228
629,322
622,902
345,231
33,1085
196,394
1020,825
175,907
368,946
1022,156
620,380
6,529
533,446
1189,1186
323,930
1191,702
495,455
501,1160
944,1040
502,1197
358,997
826,923
156,970
1177,1022
183,880
1114,490
623,1049
899,824
631,1123
1098,808
980,1147
226,149
780,752
291,241
895,217
864,914
1136,813
407,180
191,176
386,1025
2,155
663,572
822,925
919,4
824,367
1188,722
820,1060
489,1125
149,940
630,62
137,725
1003,143
103,289
1049,132
181,570
999,1000
915,70
879,573
273,41
992,778
1164,232
41,272
833,736
998,771
813,1126
460,1158
143,1163
504,947
30,581
896,700
863,815
150,17
653,1111
430,575
955,617
141,671
560,1101
909,164
376,911
1015,690
1154,28
605,513
522,1164
402,376
1065,841
222,1018
505,826
221,343
438,303
800,387
200,478
1088,982
253,755
679,956
43,36
874,1175
698,1131
321,1184
1150,1067
684,170
667,643
1122,1078
1050,205
745,126
415,91
1137,630
632,502
302,531
313,147
467,250
444,1079
93,601
942,833
835,768
640,74
138,785
666,116
1040,466
83,724
297,662
9,613
59,776
178,602
693,811
411,547
75,969
637,93
1074,101
702,105
112,1181
259,794
212,973
537,1019
1199,329
892,731
38,184
1142,897
809,285
506,511
1025,720
44,255
436,1092
18,665
52,386
405,551
40,481
546,1050
384,321
21,415
655,2
1163,202
832,796
806,1056
168,1118
642,384
911,695
1193,1134
400,25
286,981
852,656
972,929
446,1047
428,337
947,336
353,642
1174,510
778,593
817,316
568,666
72,183
58,950
1162,458
656,77
298,1098
46,188
779,885
936,1193
275,221
913,175
78,600
479,715
1093,820
873,1139
652,1023
704,791
639,781
105,896
308,489
317,977
989,206
120,63
427,1070
276,11
154,40
56,844
494,193
837,292
575,1062
793,552
680,56
352,1145
1092,995
184,22
395,971
798,985
224,1185
481,330
148,837
897,686
1045,312
688,473
773,281
1067,222
1184,1034
1032,667
1152,496
952,1116
346,400
1084,1048
714,823
783,423
316,512
372,430
349,243
1124,355
28,525
729,442
749,1106
625,1086
996,726
940,37
814,347
127,890
898,3
331,764
414,574
1068,218
277,9
451,1178
696,46
1112,704
1002,800
785,864
336,366
420,554
364,898
193,706
746,789
570,871
396,705
787,967
497,999
736,480
520,1168
432,733
251,845
101,718
68,280
1071,424
985,38
530,1119
86,983
1034,67
391,199
457,559
902,291
750,648
487,915
245,944
232,168
1072,249
596,276
1100,762
1070,743
266,233
174,583
585,814
554,782
1030,51
665,165
362,921
475,115
676,470
233,370
1026,451
456,1011
204,544
557,827
344,501
769,948
34,53
292,438
167,190
576,327
966,18
754,770
256,1144
1118,318
616,806
288,212
370,344
315,350
849,783
1180,869
764,635
848,938
706,197
136,614
341,1002
11,865
211,822
461,688
725,1195
128,698
355,1013
1041,157
478,1006
1107,651
303,64
1031,767
643,766
490,124
933,1032
63,286
434,883
720,5
812,524
1131,637
8,509
1187,220
342,1130
930,875
1038,1003
365,533
694,555
1090,1167
959,443
496,145
638,1029
574,644
97,585
282,20
1042,539
146,527
970,679
549,362
692,506
1047,924
1109,991
563,680
762,16
614,86
786,474
900,71
559,357
602,359
227,747
466,625
1170,368
771,505
1037,1088
872,530
500,113
788,565
492,863
229,744
717,576
98,1054
556,209
406,854
734,131
172,857
488,405
803,341
595,571
445,952
525,542
381,1038
1085,251
518,229
846,79
242,90
1195,1090
109,47
644,1089
70,884
1048,1087
1061,1115
743,870
236,153
579,908
841,1065
348,943
957,577
664,122
569,283
544,873
243,260
1011,1093
1000,447
22,1162
726,992
57,308
1023,980
1185,1076
612,1154
110,106
924,650
274,34
99,66
648,179
20,748
815,1074
606,520
324,963
591,248
567,1052
978,245
982,899
599,485
651,399
547,1179
87,1107
951,853
827,181
89,342
319,1152
908,1117
740,674
77,960
208,358
139,507
1046,365
683,240
925,264
1194,1138
962,391
12,561
1181,410
328,640
334,1148
1017,749
371,33
538,684
747,328
1171,692
347,596
47,589
114,110
744,707
580,549
1145,1008
1027,1142
1115,277
164,1017
1018,996
493,208
131,579
865,477
88,246
1117,96
1059,306
121,144
960,499
270,30
186,620
1120,1169
220,252
939,57
287,15
67,735
485,1146
627,1051
626,1072
447,203
986,677
26,664
240,900
418,150
126,154
17,129
512,146
1159,1129
197,836
712,1084
507,1171
818,1010
382,374
163,284
532,253
760,268
634,904
122,623
926,1172
385,691
1153,790
79,877
885,78
536,1135
842,532
847,413
5,840
213,913
23,242
967,270
129,214
1082,429
1012,483
1005,920
134,167
1119,519
880,230
1013,536
188,349
66,624
480,668
246,631
377,162
37,860
901,746
176,521
514,723
1148,716
81,792
890,382
16,591
755,810
990,311
61,1165
723,867
1056,835
719,693
216,450
876,777
296,109
807,578
669,753
1141,7
963,1024
108,939
171,737
577,959
450,398
1157,261
857,961
3,580
633,523
617,773
1087,901
1167,314
588,719
877,919
722,653
359,882
194,50
1091,538
419,457
647,1153
1052,69
214,972
784,26
390,734
917,978
752,917
697,522
210,434
777,540
968,1063
938,49
255,319
180,708
678,717
378,942
724,893
1083,172
834,118
1053,659
85,104
524,891
511,1004
552,73
1077,846
1076,238
113,75
278,1045
825,962
238,710
1140,657
792,1073
521,44
333,163
260,317
442,888
775,1012
102,1035
1130,683
314,649
670,986
867,535
90,393
781,100
185,606
871,670
672,858
974,65
668,80
840,1120
398,604
527,966
1125,459
838,273
558,852
459,516
869,185
548,988
389,1077
916,207
239,584
741,847
498,169
609,42
650,361
231,390
707,487
562,201
1133,239
1200,315
535,582
589,213
285,830
158,360
600,828
868,1096
483,491
531,397
904,425
306,259
100,128
578,590
80,338
715,889
192,588
399,173
937,288
735,436
976,812
1014,85
462,10
718,1039
893,135
862,712
1198,396
338,750
1113,419
135,375
1058,990
205,775
118,1071
886,89
1057,269
1010,993
165,1020
453,296
422,266
921,1105
280,445
1105,1150
284,1151
971,784
1149,1141
1069,227
888,97
543,798
431,605
594,235
950,99
202,713
851,848
299,548
209,171
1078,282
1064,1031
1144,803
731,1059
157,495
356,676
152,842
853,543
928,987
728,1182
132,24
860,926
10,641
367,61
821,334
795,742
912,638
1128,204
1183,951
649,433
397,1112
906,152
1096,787
677,371
1036,92
351,98
393,567
369,1026
179,754
330,1037
716,868
326,1128
1024,94
361,1030
94,616
1095,295
1179,351
1135,463
491,1183
435,139
584,287
465,461
774,1091
1008,236
49,669
339,151
1129,558
1186,1046
1062,697
765,1133
375,598
1102,989
767,514
1172,431
477,186
264,414
65,1199
1101,363
710,87
571,216
808,1042
145,818
429,730
1103,834
686,627
624,672
283,377
207,1069
392,1166
363,381
295,1083
468,326
50,772
300,765
413,1198
828,912
73,678
994,1159
918,81
932,12
737,121
1165,932
53,1103
106,293
311,508
463,545
861,422
223,76
1110,309
1035,1014
217,526
691,1057
230,192
1123,906
440,215
1097,383
1196,300
646,594
1039,468
1151,928
988,339
294,356
15,373
484,58
843,1173
730,562
526,369
293,1102
1169,976
870,256
748,774
987,1082
766,389
708,518
267,732
425,465
889,123
601,493
732,756
115,984
1190,994
473,333
582,392
830,599
151,1043
1106,475
993,267
965,965
96,1113
984,1190
76,294
961,456
169,937
772,441
499,299
713,378
403,354
123,418
153,102
173,1200
991,957
225,968
373,838
742,348
604,440
508,647
433,60
598,403
36,141
545,435
215,1027
1051,39
19,23
641,310
1029,1196
756,225
218,741
39,874
790,134
1043,886
703,1036
235,462
1004,851
1166,728
920,88
805,916
374,805
383,1097
354,484
1182,1095
201,795
441,821
310,19
733,1140
