natural_rank, elo_rank
0,0
1,5
2,6
3,7
4,2
5,9
6,20
7,10
8,12
9,1
10,11
11,21
12,15
13,25
14,18
15,28
16,22
17,4
18,24
19,29
20,26
21,14
22,49
23,13
24,17
25,19
26,3
27,27
28,8
29,16
30,38
31,31
32,34
33,23
34,40
35,44
36,30
37,56
38,45
39,52
40,42
41,46
42,58
43,63
44,39
45,33
46,81
47,71
48,61
49,32
50,47
51,57
52,41
53,37
54,53
55,43
56,70
57,35
58,51
59,77
60,48
61,54
62,72
63,79
64,64
65,36
66,68
67,65
68,55
69,97
70,60
71,93
72,73
73,69
74,74
75,90
76,105
77,50
78,67
79,66
80,92
81,87
82,59
83,83
84,62
85,95
86,104
87,96
88,85
89,103
90,75
91,80
92,107
93,82
94,99
95,88
96,100
97,84
98,76
99,86
100,91
101,94
102,102
103,110
104,78
105,89
106,108
107,98
108,109
109,119
110,117
111,116
112,101
113,111
114,106
115,112
116,113
117,114
118,115
119,118
