1,1
2,408
3,613
4,271
5,404
6,1160
7,1055
8,855
9,257
10,189
11,687
12,250
13,905
14,738
15,949
16,289
17,144
18,607
19,335
20,1033
21,62
22,301
23,262
24,387
25,934
26,586
27,597
28,448
29,329
30,337
31,166
32,645
33,658
34,603
35,829
36,770
37,486
38,1080
39,979
40,1168
41,856
42,305
43,866
44,421
45,32
46,503
47,528
48,332
49,700
50,673
51,751
52,931
53,281
54,517
55,628
56,763
57,187
58,142
59,279
60,27
61,850
62,954
63,452
64,426
65,1155
66,969
67,1021
68,910
69,550
70,117
71,610
72,360
73,636
74,801
75,661
76,671
77,64
78,133
79,1175
80,682
81,272
82,907
83,182
84,388
85,234
86,1127
87,258
88,583
89,380
90,312
91,956
92,1121
93,948
94,782
95,975
96,845
97,592
98,161
99,593
100,45
101,621
102,611
103,140
104,881
105,1001
106,1161
107,327
108,290
109,162
110,124
111,159
112,561
113,29
114,1073
115,482
116,721
117,858
118,42
119,320
120,458
121,509
122,1192
123,1060
124,553
125,111
126,819
127,635
128,914
129,424
130,685
131,1173
132,675
133,1028
134,539
135,472
136,95
137,48
138,199
139,768
140,797
141,674
142,350
143,1019
144,177
145,1139
146,268
147,935
148,1104
149,379
150,789
151,470
152,263
153,325
154,695
155,416
156,464
157,206
158,125
159,92
160,1016
161,14
162,802
163,437
164,587
165,1079
166,761
167,469
168,443
169,1197
170,1081
171,882
172,343
173,1054
174,836
175,681
176,1009
177,945
178,474
179,529
180,564
181,523
182,471
183,816
184,203
185,654
186,572
187,573
188,1176
189,228
190,619
191,796
192,1089
193,84
194,922
195,799
196,454
197,709
198,1044
199,7
200,875
201,739
202,541
203,727
204,590
205,1138
206,929
207,887
208,941
209,394
210,409
211,534
212,237
213,811
214,542
215,116
216,244
217,946
218,565
219,1007
220,757
221,1006
222,1132
223,995
224,1134
225,1075
226,130
227,1111
228,759
229,555
230,269
231,219
232,476
233,318
234,615
235,170
236,660
237,823
238,401
239,1086
240,854
241,1066
242,791
243,195
244,758
245,831
246,74
247,54
248,1143
249,254
250,927
251,51
252,551
253,753
254,412
255,1126
256,983
257,119
258,689
259,160
260,859
261,417
262,566
263,82
264,964
265,973
266,891
267,690
268,699
269,981
270,997
271,366
272,581
273,657
274,322
275,71
276,515
277,439
278,519
279,190
280,903
281,261
282,249
283,516
284,923
285,810
286,1147
287,510
288,4
289,60
290,705
291,357
292,943
293,804
294,1099
295,304
296,513
297,455
298,340
299,701
300,31
301,309
302,883
303,55
304,1156
305,423
306,307
307,449
308,69
309,155
310,844
311,958
312,247
313,252
314,1108
315,1178
316,1063
317,1094
318,878
319,91
320,410
321,540
322,711
323,659
324,241
325,1158
326,35
327,618
328,776
329,248
330,13
331,662
332,608
333,1116
334,198
335,265
336,104
337,794
338,953
339,24
340,25
341,147
342,1146
343,107
344,977
345,884
346,894
347,839
348,629
349,622
350,345
351,33
352,196
353,1020
354,175
355,368
356,1022
357,620
358,6
359,533
360,1189
361,323
362,1191
363,495
364,501
365,944
366,502
367,358
368,826
369,156
370,1177
371,183
372,1114
373,623
374,899
375,631
376,1098
377,980
378,226
379,780
380,291
381,895
382,864
383,1136
384,407
385,191
386,386
387,2
388,663
389,822
390,919
391,824
392,1188
393,820
394,489
395,149
396,630
397,137
398,1003
399,103
400,1049
401,181
402,999
403,915
404,879
405,273
406,992
407,1164
408,41
409,833
410,998
411,813
412,460
413,143
414,504
415,30
416,896
417,863
418,150
419,653
420,430
421,955
422,141
423,560
424,909
425,376
426,1015
427,1154
428,605
429,522
430,402
431,1065
432,222
433,505
434,221
435,438
436,800
437,200
438,1088
439,253
440,679
441,43
442,874
443,698
444,321
445,1150
446,684
447,667
448,1122
449,1050
450,745
451,415
452,1137
453,632
454,302
455,313
456,467
457,444
458,93
459,942
460,835
461,640
462,138
463,666
464,1040
465,83
466,297
467,9
468,59
469,178
470,693
471,411
472,75
473,637
474,1074
475,702
476,112
477,259
478,212
479,537
480,1199
481,892
482,38
483,1142
484,809
485,506
486,1025
487,44
488,436
489,18
490,52
491,405
492,40
493,546
494,384
495,21
496,655
497,1163
498,832
499,806
500,168
501,642
502,911
503,1193
504,400
505,286
506,852
507,972
508,446
509,428
510,947
511,353
512,1174
513,778
514,817
515,568
516,72
517,58
518,1162
519,656
520,298
521,46
522,779
523,936
524,275
525,913
526,78
527,479
528,1093
529,873
530,652
531,704
532,639
533,105
534,308
535,317
536,989
537,120
538,427
539,276
540,154
541,56
542,494
543,837
544,575
545,793
546,680
547,352
548,1092
549,184
550,395
551,798
552,224
553,481
554,148
555,897
556,1045
557,688
558,773
559,1067
560,1184
561,1032
562,1152
563,952
564,346
565,1084
566,714
567,783
568,316
569,372
570,349
571,1124
572,28
573,729
574,749
575,625
576,996
577,940
578,814
579,127
580,898
581,331
582,414
583,1068
584,277
585,451
586,696
587,1112
588,1002
589,785
590,336
591,420
592,364
593,193
594,746
595,570
596,396
597,787
598,497
599,736
600,520
601,432
602,251
603,101
604,68
605,1071
606,985
607,530
608,86
609,1034
610,391
611,457
612,902
613,750
614,487
615,245
616,232
617,1072
618,596
619,1100
620,1070
621,266
622,174
623,585
624,554
625,1030
626,665
627,362
628,475
629,676
630,233
631,1026
632,456
633,204
634,557
635,344
636,769
637,34
638,292
639,167
640,576
641,966
642,754
643,256
644,1118
645,616
646,288
647,370
648,315
649,849
650,1180
651,764
652,848
653,706
654,136
655,341
656,11
657,211
658,461
659,725
660,128
661,355
662,1041
663,478
664,1107
665,303
666,1031
667,643
668,490
669,933
670,63
671,434
672,720
673,812
674,1131
675,8
676,1187
677,342
678,930
679,1038
680,365
681,694
682,1090
683,959
684,496
685,638
686,574
687,97
688,282
689,1042
690,146
691,970
692,549
693,692
694,1047
695,1109
696,563
697,762
698,614
699,786
700,900
701,559
702,602
703,227
704,466
705,1170
706,771
707,1037
708,872
709,500
710,788
711,492
712,229
713,717
714,98
715,556
716,406
717,734
718,172
719,488
720,803
721,595
722,445
723,525
724,381
725,1085
726,518
727,846
728,242
729,1195
730,109
731,644
732,70
733,1048
734,1061
735,743
736,236
737,579
738,841
739,348
740,957
741,664
742,569
743,544
744,243
745,1011
746,1000
747,22
748,726
749,57
750,1023
751,1185
752,612
753,110
754,924
755,274
756,99
757,648
758,20
759,815
760,606
761,324
762,591
763,567
764,978
765,982
766,599
767,651
768,547
769,87
770,951
771,827
772,89
773,319
774,908
775,740
776,77
777,208
778,139
779,1046
780,683
781,925
782,1194
783,962
784,12
785,1181
786,328
787,334
788,1017
789,371
790,538
791,747
792,1171
793,347
794,47
795,114
796,744
797,580
798,1145
799,1027
800,1115
801,164
802,1018
803,493
804,131
805,865
806,88
807,1117
808,1059
809,121
810,960
811,270
812,186
813,1120
814,220
815,939
816,287
817,67
818,485
819,627
820,626
821,447
822,986
823,26
824,240
825,418
826,126
827,17
828,512
829,1159
830,197
831,712
832,507
833,818
834,382
835,163
836,532
837,760
838,634
839,122
840,926
841,385
842,1153
843,79
844,885
845,536
846,842
847,847
848,5
849,213
850,23
851,967
852,129
853,1082
854,1012
855,1005
856,134
857,1119
858,880
859,1013
860,188
861,66
862,480
863,246
864,377
865,37
866,901
867,176
868,514
869,1148
870,81
871,890
872,16
873,755
874,990
875,61
876,723
877,1056
878,719
879,216
880,876
881,296
882,807
883,669
884,1141
885,963
886,108
887,171
888,577
889,450
890,1157
891,857
892,3
893,633
894,617
895,1087
896,1167
897,588
898,877
899,722
900,359
901,194
902,1091
903,419
904,647
905,1052
906,214
907,784
908,390
909,917
910,752
911,697
912,210
913,777
914,968
915,938
916,255
917,180
918,678
919,378
920,724
921,1083
922,834
923,1053
924,85
925,524
926,511
927,552
928,1077
929,1076
930,113
931,278
932,825
933,238
934,1140
935,792
936,521
937,333
938,260
939,442
940,775
941,102
942,1130
943,314
944,670
945,867
946,90
947,781
948,185
949,871
950,672
951,974
952,668
953,840
954,398
955,527
956,1125
957,838
958,558
959,459
960,869
961,548
962,389
963,916
964,239
965,741
966,498
967,609
968,650
969,231
970,707
971,562
972,1133
973,1200
974,535
975,589
976,285
977,158
978,600
979,868
980,483
981,531
982,904
983,306
984,100
985,578
986,80
987,715
988,192
989,399
990,937
991,735
992,976
993,1014
994,462
995,718
996,893
997,862
998,1198
999,338
1000,1113
1001,135
1002,1058
1003,205
1004,118
1005,886
1006,1057
1007,1010
1008,165
1009,453
1010,422
1011,921
1012,280
1013,1105
1014,284
1015,971
1016,1149
1017,1069
1018,888
1019,543
1020,431
1021,594
1022,950
1023,202
1024,851
1025,299
1026,209
1027,1078
1028,1064
1029,1144
1030,731
1031,157
1032,356
1033,152
1034,853
1035,928
1036,728
1037,132
1038,860
1039,10
1040,367
1041,821
1042,795
1043,912
1044,1128
1045,1183
1046,649
1047,397
1048,906
1049,1096
1050,677
1051,1036
1052,351
1053,393
1054,369
1055,179
1056,330
1057,716
1058,326
1059,1024
1060,361
1061,94
1062,1095
1063,1179
1064,1135
1065,491
1066,435
1067,584
1068,465
1069,774
1070,1008
1071,49
1072,339
1073,1129
1074,1186
1075,1062
1076,765
1077,375
1078,1102
1079,767
1080,1172
1081,477
1082,264
1083,65
1084,1101
1085,710
1086,571
1087,808
1088,145
1089,429
1090,1103
1091,686
1092,624
1093,283
1094,207
1095,392
1096,363
1097,295
1098,468
1099,50
1100,300
1101,413
1102,828
1103,73
1104,994
1105,918
1106,932
1107,737
1108,1165
1109,53
1110,106
1111,311
1112,463
1113,861
1114,223
1115,1110
1116,1035
1117,217
1118,691
1119,230
1120,1123
1121,440
1122,1097
1123,1196
1124,646
1125,1039
1126,1151
1127,988
1128,294
1129,15
1130,484
1131,843
1132,730
1133,526
1134,293
1135,1169
1136,870
1137,748
1138,987
1139,766
1140,708
1141,267
1142,425
1143,889
1144,601
1145,732
1146,115
1147,1190
1148,473
1149,582
1150,830
1151,151
1152,1106
1153,993
1154,965
1155,96
1156,984
1157,76
1158,961
1159,169
1160,772
1161,499
1162,713
1163,403
1164,123
1165,153
1166,173
1167,991
1168,225
1169,373
1170,742
1171,604
1172,508
1173,433
1174,598
1175,36
1176,545
1177,215
1178,1051
1179,19
1180,641
1181,1029
1182,756
1183,218
1184,39
1185,790
1186,1043
1187,703
1188,235
1189,1004
1190,1166
1191,920
1192,805
1193,374
1194,383
1195,354
1196,1182
1197,201
1198,441
1199,310
1200,733
