natural_rank, elo_rank
0,0
1,8
2,2
3,1
4,5
5,3
6,6
7,4
8,10
9,12
10,14
11,7
12,13
13,16
14,9
15,20
16,18
17,11
18,15
19,19
20,27
21,28
22,21
23,17
24,26
25,22
26,24
27,35
28,23
29,32
30,29
31,25
32,31
33,30
34,36
35,41
36,33
37,39
38,47
39,42
40,40
41,34
42,43
43,54
44,58
45,45
46,38
47,53
48,37
49,49
50,51
51,63
52,44
53,48
54,60
55,46
56,50
57,61
58,55
59,66
60,65
61,57
62,52
63,68
64,70
65,64
66,56
67,72
68,67
69,59
70,77
71,76
72,62
73,71
74,83
75,69
76,73
77,78
78,75
79,74
80,79
81,80
82,88
83,82
84,85
85,81
86,86
87,94
88,84
89,89
90,90
91,87
92,96
93,92
94,98
95,103
96,93
97,113
98,91
99,97
100,106
101,99
102,111
103,102
104,100
105,105
106,95
107,112
108,104
109,109
110,101
111,119
112,116
113,117
114,108
115,107
116,114
117,110
118,118
119,115
